verilog 1/simulation.vcd
$date
    Jun  2, 2022  11:36:04
$end
$version
    TOOL:	xmsim	20.09-s003
$end
$timescale
    1 ns
$end

$scope module alu_4bit_tb $end
$var reg       1 !    t_a[3] $end
$var reg       1 "    t_a[2] $end
$var reg       1 #    t_a[1] $end
$var reg       1 $    t_a[0] $end
$var reg       1 %    t_b[3] $end
$var reg       1 &    t_b[2] $end
$var reg       1 '    t_b[1] $end
$var reg       1 (    t_b[0] $end
$var reg       1 )    t_Cin $end
$var reg       2 *    t_op [1:0] $end
$var wire      1 +    t_S[3] $end
$var wire      1 ,    t_S[2] $end
$var wire      1 -    t_S[1] $end
$var wire      1 .    t_S[0] $end
$var wire      1 /    t_Cout  $end
$upscope $end


$scope module rip_fas_tb $end
$var reg       1 0    t_a[3] $end
$var reg       1 1    t_a[2] $end
$var reg       1 2    t_a[1] $end
$var reg       1 3    t_a[0] $end
$var reg       1 4    t_b[3] $end
$var reg       1 5    t_b[2] $end
$var reg       1 6    t_b[1] $end
$var reg       1 7    t_b[0] $end
$var reg       1 8    t_Cin $end
$var reg       1 9    t_s_op $end
$var wire      1 :    t_Cout  $end
$var wire      1 ;    t_S[3] $end
$var wire      1 <    t_S[2] $end
$var wire      1 =    t_S[1] $end
$var wire      1 >    t_S[0] $end
$upscope $end


$scope module mux4_tb $end
$var reg       1 ?    t_D0 $end
$var reg       1 @    t_D1 $end
$var reg       1 A    t_D2 $end
$var reg       1 B    t_D3 $end
$var reg       1 C    t_S0 $end
$var reg       1 D    t_S1 $end
$var wire      1 E    t_Z  $end
$upscope $end


$scope module DEMO_TB $end
$var wire      1 F    c1  $end
$var wire      1 G    c2  $end
$var wire      1 H    c3  $end
$var reg       1 I    a $end
$var reg       1 J    b $end
$upscope $end

$enddefinitions $end
$dumpvars
0!
1"
0#
0$
0%
0&
1'
1(
0)
b11 *
x+
x,
x-
x.
x/
00
11
02
03
04
05
16
07
08
09
x:
x;
x<
x=
x>
0?
0@
0A
0B
0C
0D
xE
xF
xG
xH
0I
0J
$end
#2
0F
#3
0G
#5
0H
#10
1I
1J
#12
1F
#13
1G
#15
1H
#20
1?
0I
0J
#22
0F
#23
0G
#24
0>
1=
#25
0H
#32
0E
0:
#40
1/
1C
0?
1@
1<
#52
1E
#56
0;
1.
#60
18
19
#63
0E
#64
0+
#68
1>
#72
0,
0-
#80
1D
0C
#84
0>
0=
0<
#100
1:
1A
1=
#112
1E
#120
0(
